<svg xmlns="http://www.w3.org/2000/svg" xmlns:xlink="http://www.w3.org/1999/xlink" version="1.1" preserveAspectRatio="none" x="0px" y="0px" width="90px" height="90px" viewBox="0 0 90 90">
<defs>
<g id="Layer0_0_FILL">
<path fill="#000000" stroke="none" d=" M 50.75 52.6 Q 51.15 52.95 51.75 52.95 52.25 52.9 52.6 52.45 52.7 52.45 52.7 52.35 52.75 52.35 52.75 52.3 L 50.75 50.55 Q 50.7 50.6 50.6 50.7 50.25 51.15 50.3 51.7 50.3 52.05 50.55 52.35 50.6 52.5 50.75 52.6 M 28.2 57.9 L 28.2 62.55 60.6 62.55 60.6 57.9 28.2 57.9 M 28.2 68.1 L 28.2 72.75 60.6 72.75 60.6 68.1 28.2 68.1 M 55.9 44 Q 56.6 44.5 57.2 45 57.25 45.1 57.35 45.15 L 57.4 45.2 Q 57.5 45.3 57.65 45.45 58.25 46 58.8 46.55 59.3 47.1 59.75 47.7 L 81.55 23.1 Q 80.25 19.5 76.45 18.65 L 54.7 43.25 Q 55.35 43.6 55.9 44 M 55.5 44.85 Q 54.8 44.35 54.1 43.9 L 51.35 49.9 53.3 51.65 59.15 48.4 Q 58.85 48.05 58.6 47.7 58.3 47.4 58.05 47.1 57.55 46.6 57 46.15 57 46.1 56.95 46.1 56.75 45.95 56.55 45.75 L 56.55 45.7 Q 56.45 45.65 56.4 45.6 55.95 45.2 55.5 44.85 M 50.75 42.15 L 54.85 37.5 28.2 37.5 28.2 42.15 50.75 42.15 M 47.85 48.25 Q 48.05 48.05 48.15 47.95 L 48.25 47.7 28.2 47.7 28.2 52.35 46.65 52.35 Q 46.6 52.15 46.6 51.9 46.45 49.8 47.85 48.25 M 69 21.55 Q 67.1 19.2 63.15 18.85 L 63.15 18.8 60.6 18.8 Q 60.2 16 58.1 13.95 56.4 12.25 54.3 11.65 L 54.3 11.45 Q 54.3 7.75 51.65 5.1 49 2.5 45.25 2.5 L 42.3 2.5 Q 38.55 2.45 35.9 5.05 L 35.9 5.1 Q 33.25 7.75 33.3 11.45 L 33.3 11.65 Q 31.15 12.25 29.45 13.9 L 29.4 13.95 Q 27.35 16.05 26.95 18.8 18 18.8 18 27.8 L 18 76.7 Q 18 85.75 26.95 85.75 L 63.15 85.75 63.15 85.65 Q 70.85 85 70.85 76.7 L 70.85 40.75 66.15 46.05 66.15 76.7 Q 66.15 80.95 62 81.1 L 26.95 81.1 Q 22.65 81.05 22.65 76.7 L 22.65 27.8 Q 22.65 23.5 26.85 23.45 27.1 26.65 29.45 29 32.1 31.65 35.8 31.65 L 51.75 31.65 Q 55.45 31.65 58.05 29 58.1 29 58.1 28.95 60.45 26.65 60.7 23.45 L 62 23.45 Q 64.65 23.5 65.65 25.35 L 69 21.55 M 48.35 8.4 Q 49.55 9.6 49.65 11.3 L 37.95 11.3 Q 38 9.6 39.2 8.4 L 39.2 8.35 Q 40.5 7.15 42.3 7.15 L 45.25 7.15 Q 47.1 7.1 48.35 8.4 M 56.1 20.3 L 56.1 22.6 Q 56.05 24.4 54.8 25.65 L 54.75 25.7 Q 53.5 26.95 51.75 26.95 L 35.8 26.95 Q 34 26.95 32.75 25.7 31.45 24.4 31.5 22.6 L 31.5 20.3 Q 31.5 18.55 32.7 17.25 32.75 17.25 32.75 17.2 33.95 16.05 35.6 16 35.65 16 35.7 16 35.75 16 35.8 16 L 51.75 16 Q 51.8 16 51.85 16 51.9 16 51.95 16 53.6 16.05 54.8 17.25 56.05 18.5 56.1 20.3 Z"/>
</g>
</defs>

<g transform="matrix( 1, 0, 0, 1, 0,0) ">
<use xlink:href="#Layer0_0_FILL"/>
</g>
</svg>